{
  "id": "resource-id-2",
  "authorization": {
    "token": "Bearer authorization-token-issued-to-you"
  },
  "organization": {
    "id": "organization-id-2"
  },
  "template": {
    "cache": {
    },
    "keys": [
      "template-id-a",
      "template-id-b"
    ]
  }
}
